UQAM4: n19 n20 3
UQAM2: n2 n19 4
Grands-Batisseurs: n12 n13 7
Grands-Batisseurs: n13 n14 7
Grands-Batisseurs: n14 n11 7
Sherbrooke: n5 n6 7
Sherbrooke: n6 n7 7
Saint-Urbain: n7 n8 9
Saint-Urbain: n8 n9 9
Saint-Urbain: n9 n10 9
Jeanne-Mance: n1 n2 10
UQAM1: n12 n8 10
UQAM1: n15 n16 10
UQAM1: n16 n17 10
UQAM1: n17 n18 10
UQAM1: n18 n12 10
Jeanne-Mance: n2 n3 10
UQAM1: n3 n15 10
Jeanne-Mance: n3 n4 10
---
159
